Chapter 13: Classification
…
The higher someones income, the less likely they will vote for a democratic candidate

Optional (very hard!): Interpret the estimate for (Intercept). What does it mean? Think back to how we interpreted regression intercepts in the last two weeks. You might need to use the qlogis() function.

In this case, the estimate for Intercept would not have a meaningful interpretation because there is no value for what it means when income = 0. However, if it did have an interpretable meaning, we would say that the likelihood of someone voting democrat with gendermale = 0 and income = 0 is 18%.

Scene 3

Prompt: Its time to get some individual estimates from our model.

Use augment() from the broom package to get predictions from our model. You will need to set the type.predict and data arguments correctly.

augment(x = model_1, data = nes, type.predict = "response")

## # A tibble: 6,653 x 14
##     year dvote party ideology income gender race  .fitted .se.fit .resid    .hat
##    <int> <int> <int>    <int>  <int> <fct>  <fct>   <dbl>   <dbl>  <dbl>   <dbl>
##  1  1972     0     6        5      3 male   White   0.431 0.00908 -1.06  3.36e-4
##  2  1972     1     6        5      4 female White   0.400 0.00983  1.35  4.02e-4
##  3  1972     0     7        6      4 male   White   0.362 0.00931 -0.948 3.75e-4
##  4  1972     0     2        4      4 male   White   0.362 0.00931 -0.948 3.75e-4
##  5  1972     0     6        5      1 female White   0.613 0.0145  -1.38  8.82e-4
##  6  1972     0     7        7      5 female White   0.333 0.0128  -0.900 7.39e-4
##  7  1972     0     5        5      4 male   White   0.362 0.00931 -0.948 3.75e-4
##  8  1972     0     7        6      4 female White   0.400 0.00983 -1.01  4.02e-4
##  9  1972     0     3        4      3 male   White   0.431 0.00908 -1.06  3.36e-4
## 10  1972     1     2        2      2 female Black   0.543 0.0107   1.11  4.64e-4
## #  with 6,643 more rows, and 3 more variables: .sigma <dbl>, .cooksd <dbl>,
## #   .std.resid <dbl>

What does the .fitted column means?

The fitted column is the predicted likelihood of voting democrat for each individual based on their gender and income.

Why does .fitted have the same value for every male with income = 3? (First, show that this is in fact true. Then explain why?)

augment(x = model_1, data = nes, type.predict = "response") %>%
  filter(income == 3 & gender == "male")

## # A tibble: 1,080 x 14
##     year dvote party ideology income gender race  .fitted .se.fit .resid    .hat
##    <int> <int> <int>    <int>  <int> <fct>  <fct>   <dbl>   <dbl>  <dbl>   <dbl>
##  1  1972     0     6        5      3 male   White   0.431 0.00908  -1.06 3.36e-4
##  2  1972     0     3        4      3 male   White   0.431 0.00908  -1.06 3.36e-4
##  3  1972     1     2        2      3 male   White   0.431 0.00908   1.30 3.36e-4
##  4  1972     0     5        4      3 male   White   0.431 0.00908  -1.06 3.36e-4
##  5  1972     0     7        4      3 male   White   0.431 0.00908  -1.06 3.36e-4
##  6  1972     1     2        5      3 male   White   0.431 0.00908   1.30 3.36e-4
##  7  1972     0     5        4      3 male   White   0.431 0.00908  -1.06 3.36e-4
##  8  1972     0     5        4      3 male   White   0.431 0.00908  -1.06 3.36e-4
##  9  1972     0     3        4      3 male   Other   0.431 0.00908  -1.06 3.36e-4
## 10  1972     0     5        5      3 male   White   0.431 0.00908  -1.06 3.36e-4
## #  with 1,070 more rows, and 3 more variables: .sigma <dbl>, .cooksd <dbl>,
## #   .std.resid <dbl>
…
